…
## Returned tables from SparkSQL

If you use `dbGetQuery()` to fetch your table from Spark, multi-value
columns will be returned as list-columns. `decode_df` will return a
comma-delimited string for these columns as well.

``` r
tibble::tibble(mydf)
#> # A tibble: 100 × 11
#>    participant…¹ parti…² parti…³ parti…⁴ parti…⁵ parti…⁶ parti…⁷ parti…⁸ parti…⁹
#>    <chr>           <dbl>   <dbl>   <dbl>   <dbl> <list>    <dbl> <list>    <dbl>
#>  1 sample_100_1…      43       3      NA      NA <list>        0 <lgl>        NA
#>  2 sample_100_1…      60       3      NA      NA <list>        0 <lgl>        NA
#>  3 sample_100_2…      53       3      NA      NA <lgl>         0 <lgl>        NA
#>  4 sample_100_2…      62       2      NA      NA <list>        0 <lgl>        NA
#>  5 sample_100_3…      67       3      NA      NA <list>        0 <lgl>        NA
#>  6 sample_100_3…      61       1      NA      NA <list>        0 <lgl>        NA
#>  7 sample_100_3…      66       3      NA      NA <list>        0 <lgl>        NA
#>  8 sample_100_36      56       3       3      NA <list>        0 <lgl>        NA
#>  9 sample_100_3…      55       2      NA      NA <list>        0 <lgl>        NA
#> 10 sample_100_3…      53       1      NA      NA <list>        0 <lgl>        NA
#> # … with 90 more rows, 2 more variables: participant.p3159_i1 <dbl>,
#> #   participant.p3159_i2 <dbl>, and abbreviated variable names
#> #   ¹​participant.eid, ²​participant.p21022, ³​participant.p1508_i0,
#> #   ⁴​participant.p1508_i1, ⁵​participant.p1508_i2, ⁶​participant.p41202,
#> #   ⁷​participant.p31, ⁸​participant.p41226, ⁹​participant.p3159_i0
#> # ℹ Use `print(n = ...)` to see more rows, and `colnames()` to see all variable names
```
…
