An R package to help with interacting with the platform • dxhelper
…
Q66.8 Other congenital deformities of feet|G56.8 Other mononeuropathies of upper limb|R07.0 Pain in throat|Q66 Congenital deformities of feet|Q65-Q79 Congenital malformations and deformations of the musculoskeletal system|Chapter XVII Congenital malformations, deformations and chromosomal abnormalities|G56 Mononeuropathies of upper limb|G50-G59 Nerve, nerve root and plexus disorders|Chapter VI Diseases of the nervous system|R07 Pain in throat and chest|R00-R09 Symptoms and signs involving the circulatory and respiratory systems|Chapter XVIII Symptoms, signs and abnormal clinical and laboratory findings, not elsewhere classified

I12.0 Hypertensive renal disease with renal failure|N43.3 Hydrocele, unspecified|G45.9 Transient cerebral ischaemic attack, unspecified|I12 Hypertensive renal disease|I10-I15 Hypertensive diseases|Chapter IX Diseases of the circulatory system|N43 Hydrocele and spermatocele|N40-N51 Diseases of male genital organs|Chapter XIV Diseases of the genitourinary system|G45 Transient cerebral ischaemic attacks and related syndromes|G40-G47 Episodic and paroxysmal disorders|Chapter VI Diseases of the nervous system

Z03.9 Observation for suspected disease or condition, unspecified|Q66.8 Other congenital deformities of feet|M20.1 Hallux valgus (acquired)|Z03 Medical observation and evaluation for suspected diseases and conditions|Z00-Z13 Persons encountering health services for examination and investigation|Chapter XXI Factors influencing health status and contact with health services|Q66 Congenital deformities of feet|Q65-Q79 Congenital malformations and deformations of the musculoskeletal system|Chapter XVII Congenital malformations, deformations and chromosomal abnormalities|M20 Acquired deformities of fingers and toes|M20-M25 Other joint disorders|Chapter XIII Diseases of the musculoskeletal system and connective tissue

Z87.1 Personal history of diseases of the digestive system|C61 Malignant neoplasm of prostate|M75.1 Rotator cuff syndrome|R31 Unspecified haematuria|D12.5 Sigmoid colon|Z87 Personal history of other diseases and conditions|Z80-Z99 Persons with potential health hazards related to family and personal history and certain conditions influencing health status|Chapter XXI Factors influencing health status and contact with health services|C60-C63 Malignant neoplasms of male genital organs|Chapter II Neoplasms|M75 Shoulder lesions|M70-M79 Other soft tissue disorders|Chapter XIII Diseases of the musculoskeletal system and connective tissue|R30-R39 Symptoms and signs involving the urinary system|Chapter XVIII Symptoms, signs and abnormal clinical and laboratory findings, not elsewhere classified|D12 Benign neoplasm of colon, rectum, anus and anal canal|D10-D36 Benign neoplasms

Returned tables from SparkSQL

If you use dbGetQuery() to fetch your table from Spark, multi-value columns will be returned as list-columns. decode_df will return a comma-delimited string for these columns as well.

tibble::tibble(mydf)
#> # A tibble: 100 × 11
#>    participant…¹ parti…² parti…³ parti…⁴ parti…⁵ parti…⁶ parti…⁷ parti…⁸ parti…⁹
#>    <chr>           <dbl>   <dbl>   <dbl>   <dbl> <list>    <dbl> <list>    <dbl>
#>  1 sample_100_1…      43       3      NA      NA <list>        0 <lgl>        NA
#>  2 sample_100_1…      60       3      NA      NA <list>        0 <lgl>        NA
#>  3 sample_100_2…      53       3      NA      NA <lgl>         0 <lgl>        NA
#>  4 sample_100_2…      62       2      NA      NA <list>        0 <lgl>        NA
#>  5 sample_100_3…      67       3      NA      NA <list>        0 <lgl>        NA
#>  6 sample_100_3…      61       1      NA      NA <list>        0 <lgl>        NA
#>  7 sample_100_3…      66       3      NA      NA <list>        0 <lgl>        NA
#>  8 sample_100_36      56       3       3      NA <list>        0 <lgl>        NA
#>  9 sample_100_3…      55       2      NA      NA <list>        0 <lgl>        NA
#> 10 sample_100_3…      53       1      NA      NA <list>        0 <lgl>        NA
#> # … with 90 more rows, 2 more variables: participant.p3159_i1 <dbl>,
#> #   participant.p3159_i2 <dbl>, and abbreviated variable names
#> #   ¹​participant.eid, ²​participant.p21022, ³​participant.p1508_i0,
#> #   ⁴​participant.p1508_i1, ⁵​participant.p1508_i2, ⁶​participant.p41202,
#> #   ⁷​participant.p31, ⁸​participant.p41226, ⁹​participant.p3159_i0
#> # ℹ Use `print(n = ...)` to see more rows, and `colnames()` to see all variable names
…
